{  
    "photos":{  
       "page":1,
       "pages":3393,
       "perpage":100,
       "total":"339278",
       "photo":[  
          {  
             "id":"9632611459",
             "owner":"50121543@N07",
             "secret":"3c04d29bf7",
             "server":"7448",
             "farm":8,
             "title":"Good morning Galaxidi",
             "ispublic":1,
             "isfriend":0,
             "isfamily":0
          }
        ]}
      }